#VRML V2.0 utf8


Group {
  children 
    DEF o0 Group {
      children 
        DEF o1 Group {
          children 
            DEF o2 Transform {
              translation 0 0 0
              rotation 0 0 1  0
              scale 1 1 1
              scaleOrientation 0 0 1  0
              center 0 0 0
              children [ 
                DEF o3 Group {
                  children 
                    DEF o4 Transform {
                      translation 0 0 0
                      rotation 0 0 1  0
                      scale 1 1 1
                      scaleOrientation 0 0 1  0
                      center 0 0 0

                    }

                },
                  
                DEF o5 Group {
                  children 
                    DEF o6 Transform {
                      translation 0 0 0
                      rotation 0 0 1  0
                      scale 1 1 1
                      scaleOrientation 0 0 1  0
                      center 0 0 0
                      children 
                        DEF o7 Group {

                        }

                    }

                },
                  
                DEF o8 Group {
                  children 
                    DEF o9 Transform {
                      translation 0 0 0
                      rotation 0 0 1  0
                      scale 1 1 1
                      scaleOrientation 0 0 1  0
                      center 0 0 0

                    }

                },
                  
                DEF o10 Group {
                  children 
                    DEF o11 Transform {
                      translation 0 0 0
                      rotation 0.57735026 0.57735026 0.57735026  2.0943952
                      scale 1 1 1
                      scaleOrientation 0 0 1  0
                      center 0 0 0
                      children 
                        DEF o12 Group {

                        }

                    }

                },
                  
                DEF o13 Group {
                  children 
                    DEF o14 Transform {
                      translation 0 0 0
                      rotation 0 0 1  0
                      scale 1 1 1
                      scaleOrientation 0 0 1  0
                      center 0 0 0

                    }

                },
                  
                DEF o15 Group {
                  children 
                    DEF o16 Transform {
                      translation 0 0 0
                      rotation 0 0 1  0
                      scale 1 1 1
                      scaleOrientation 0 0 1  0
                      center 0 0 0
                      children 
                        DEF o17 Group {
                          children [ 
                            DEF o18 Group {
                              children 
                                DEF o19 Shape {
                                  appearance 
                                  Appearance {
                                    material 
                                    Material {
                                      diffuseColor 0.098039217 0.098039217 0.098039217
                                      shininess 1

                                    }

                                  }
                                  geometry 
                                  IndexedLineSet {
                                    coord 
                                    DEF o20 Coordinate {
                                      point [ 5 7.2615533e-015 41,
                                          5 -2.9413087e-016 50,
                                          5 1.2257557e-014 59,
                                          4.9975543 -0.15637179 58.980999,
                                          4.9909163 -0.30125612 58.929062,
                                          4.9814553 -0.43023333 58.854088,
                                          4.9663463 -0.57914048 58.731907,
                                          4.9412794 -0.76404035 58.521896,
                                          4.9026103 -0.98204482 58.176804,
                                          4.8477497 -1.2244678 57.628174,
                                          4.7691536 -1.501724 56.623672,
                                          4.7151442 -1.6635555 55.466846,
                                          4.7069106 -1.6867104 53.872818,
                                          4.7661419 -1.5112548 52.424053,
                                          4.8543148 -1.198177 51.301559,
                                          4.9232302 -0.87281525 50.635681,
                                          4.9629154 -0.60784167 50.29628,
                                          4.9841514 -0.39778957 50.124432,
                                          4.992487 -0.27399811 50.058601,
                                          4.9980516 -0.13957757 50.015133,
                                          5 0 70,
                                          5 0 70,
                                          4.8831029 1.0748522 70,
                                          4.5378771 2.0994456 70,
                                          3.9804654 3.025871 70,
                                          3.2369313 3.8108103 70,
                                          2.3420422 4.4175601 70,
                                          1.3376417 4.81775 70,
                                          0.27069455 4.9926672 70,
                                          -0.80891001 4.9341326 70,
                                          -1.8506907 4.6448836 70,
                                          -2.8059354 4.1384449 70,
                                          -3.6299775 3.4384973 70,
                                          -4.284286 2.5777693 70,
                                          -4.738266 1.5965077 70,
                                          -4.9706898 0.54059511 70,
                                          -4.9706898 -0.54059511 70,
                                          -4.738266 -1.5965077 70,
                                          -4.284286 -2.5777693 70,
                                          -3.6299775 -3.4384973 70,
                                          -2.8059354 -4.1384449 70,
                                          -1.8506907 -4.6448836 70,
                                          -0.80891001 -4.9341326 70,
                                          0.27069455 -4.9926672 70,
                                          1.3376417 -4.81775 70,
                                          2.3420422 -4.4175601 70,
                                          3.2369313 -3.8108103 70,
                                          3.9804654 -3.025871 70,
                                          4.5378771 -2.0994456 70,
                                          4.8831029 -1.0748522 70,
                                          5 1.2257557e-014 59,
                                          5 -2.9413087e-016 50,
                                          4.9975543 0.15637179 58.980999,
                                          4.9909163 0.30125612 58.929062,
                                          4.9814553 0.43023333 58.854088,
                                          4.9663463 0.57914048 58.731907,
                                          4.9412794 0.76404035 58.521896,
                                          4.9026103 0.98204482 58.176804,
                                          4.8477497 1.2244678 57.628174,
                                          4.7691536 1.501724 56.623672,
                                          4.7151442 1.6635555 55.466846,
                                          4.7069106 1.6867104 53.872818,
                                          4.7661419 1.5112548 52.424053,
                                          4.8543148 1.198177 51.301559,
                                          4.9232302 0.87281525 50.635681,
                                          4.9629154 0.60784167 50.29628,
                                          4.9840379 0.39920977 50.125336,
                                          4.9924016 0.27555096 50.059273,
                                          4.9979773 0.14220047 50.015709,
                                          5 7.2615533e-015 41,
                                          5 2.3359832e-016 32,
                                          4.9975543 0.15637179 40.980999,
                                          4.9909163 0.30125612 40.929062,
                                          4.9814553 0.43023333 40.854088,
                                          4.9663463 0.57914048 40.731907,
                                          4.9412794 0.76404035 40.521896,
                                          4.9026103 0.98204482 40.176804,
                                          4.8477497 1.2244678 39.628174,
                                          4.7691536 1.501724 38.623672,
                                          4.7151442 1.6635555 37.466846,
                                          4.7069106 1.6867104 35.872818,
                                          4.7661419 1.5112548 34.424053,
                                          4.8543148 1.198177 33.301559,
                                          4.9232302 0.87281525 32.635681,
                                          4.9629154 0.60784167 32.29628,
                                          4.9840379 0.39920977 32.125336,
                                          4.9924016 0.27555096 32.059273,
                                          4.9979773 0.14220047 32.015709,
                                          5 0 0,
                                          5 0 0,
                                          4.8831029 1.0748522 0,
                                          4.5378771 2.0994456 0,
                                          3.9804654 3.025871 0,
                                          3.2369313 3.8108103 0,
                                          2.3420422 4.4175601 0,
                                          1.3376417 4.81775 0,
                                          0.27069455 4.9926672 0,
                                          -0.80891001 4.9341326 0,
                                          -1.8506907 4.6448836 0,
                                          -2.8059354 4.1384449 0,
                                          -3.6299775 3.4384973 0,
                                          -4.284286 2.5777693 0,
                                          -4.738266 1.5965077 0,
                                          -4.9706898 0.54059511 0,
                                          -4.9706898 -0.54059511 0,
                                          -4.738266 -1.5965077 0,
                                          -4.284286 -2.5777693 0,
                                          -3.6299775 -3.4384973 0,
                                          -2.8059354 -4.1384449 0,
                                          -1.8506907 -4.6448836 0,
                                          -0.80891001 -4.9341326 0,
                                          0.27069455 -4.9926672 0,
                                          1.3376417 -4.81775 0,
                                          2.3420422 -4.4175601 0,
                                          3.2369313 -3.8108103 0,
                                          3.9804654 -3.025871 0,
                                          4.5378771 -2.0994456 0,
                                          4.8831029 -1.0748522 0,
                                          5 2.3359832e-016 32,
                                          4.9975543 -0.15637179 40.980999,
                                          4.9909163 -0.30125612 40.929062,
                                          4.9814553 -0.43023333 40.854088,
                                          4.9663463 -0.57914048 40.731907,
                                          4.9412794 -0.76404035 40.521896,
                                          4.9026103 -0.98204482 40.176804,
                                          4.8477497 -1.2244678 39.628174,
                                          4.7691536 -1.501724 38.623672,
                                          4.7151442 -1.6635555 37.466846,
                                          4.7069106 -1.6867104 35.872818,
                                          4.7661419 -1.5112548 34.424053,
                                          4.8543148 -1.198177 33.301559,
                                          4.9232302 -0.87281525 32.635681,
                                          4.9629154 -0.60784167 32.29628,
                                          4.9841514 -0.39778954 32.124432,
                                          4.992487 -0.27399811 32.058601,
                                          4.9980516 -0.13957754 32.015133,
                                          5 1.2257557e-014 59,
                                          5 -2.9413087e-016 50,
                                          4.9975543 -0.15637179 58.980999,
                                          4.9909163 -0.30125612 58.929062,
                                          4.9814553 -0.43023333 58.854088,
                                          4.9663463 -0.57914048 58.731907,
                                          4.9412794 -0.76404035 58.521896,
                                          4.9026103 -0.98204482 58.176804,
                                          4.8477497 -1.2244678 57.628174,
                                          4.7691536 -1.501724 56.623672,
                                          4.7151442 -1.6635555 55.466846,
                                          4.7069106 -1.6867104 53.872818,
                                          4.7661419 -1.5112548 52.424053,
                                          4.8543148 -1.198177 51.301559,
                                          4.9232302 -0.87281525 50.635681,
                                          4.9629154 -0.60784167 50.29628,
                                          4.9841514 -0.39778957 50.124432,
                                          4.992487 -0.27399811 50.058601,
                                          4.9980516 -0.13957757 50.015133,
                                          5 -0.15908203 58.980331,
                                          5 -0.31677341 58.921497,
                                          5 -0.47169569 58.824013,
                                          5 -0.62249458 58.688728,
                                          5 -0.81487381 58.451641,
                                          5 -1.0788305 57.982346,
                                          5 -1.3303801 57.310139,
                                          5 -1.5729135 56.226933,
                                          5 -1.7025195 54.63924,
                                          5 -1.6237906 53.1409,
                                          5 -1.3684312 51.820419,
                                          5 -0.99573642 50.848988,
                                          5 -0.66644275 50.358734,
                                          5 -0.48317388 50.184841,
                                          5 -0.29663152 50.068764,
                                          5 -0.14888561 50.017223,
                                          5 0 70,
                                          4.8831029 1.0748522 70,
                                          4.5378771 2.0994456 70,
                                          3.9804654 3.025871 70,
                                          3.2369313 3.8108103 70,
                                          2.3420422 4.4175601 70,
                                          1.3376417 4.81775 70,
                                          0.27069455 4.9926672 70,
                                          -0.80891001 4.9341326 70,
                                          -1.8506907 4.6448836 70,
                                          -2.8059354 4.1384449 70,
                                          -3.6299775 3.4384973 70,
                                          -4.284286 2.5777693 70,
                                          -4.738266 1.5965077 70,
                                          -4.9706898 0.54059511 70,
                                          -4.9706898 -0.54059511 70,
                                          -4.738266 -1.5965077 70,
                                          -4.284286 -2.5777693 70,
                                          -3.6299775 -3.4384973 70,
                                          -2.8059354 -4.1384449 70,
                                          -1.8506907 -4.6448836 70,
                                          -0.80891001 -4.9341326 70,
                                          0.27069455 -4.9926672 70,
                                          1.3376417 -4.81775 70,
                                          2.3420422 -4.4175601 70,
                                          3.2369313 -3.8108103 70,
                                          3.9804654 -3.025871 70,
                                          4.5378771 -2.0994456 70,
                                          4.8831029 -1.0748522 70,
                                          5 -2.9413087e-016 50,
                                          5 1.2257557e-014 59,
                                          5 0.15908203 50.019669,
                                          5 0.31677341 50.078503,
                                          5 0.47169569 50.175987,
                                          5 0.62249458 50.311272,
                                          5 0.81487381 50.548359,
                                          5 1.0788305 51.017654,
                                          5 1.3303801 51.689861,
                                          5 1.5729135 52.773067,
                                          5 1.7025195 54.36076,
                                          5 1.6237906 55.8591,
                                          5 1.3684312 57.179581,
                                          5 0.99573642 58.151012,
                                          5 0.66644275 58.641266,
                                          5 0.48317388 58.815159,
                                          5 0.29663152 58.931236,
                                          5 0.14888561 58.982777,
                                          4.9975543 0.15637179 58.980999,
                                          4.9909163 0.30125612 58.929062,
                                          4.9814553 0.43023333 58.854088,
                                          4.9663463 0.57914048 58.731907,
                                          4.9412794 0.76404035 58.521896,
                                          4.9026103 0.98204482 58.176804,
                                          4.8477497 1.2244678 57.628174,
                                          4.7691536 1.501724 56.623672,
                                          4.7151442 1.6635555 55.466846,
                                          4.7069106 1.6867104 53.872818,
                                          4.7661419 1.5112548 52.424053,
                                          4.8543148 1.198177 51.301559,
                                          4.9232302 0.87281525 50.635681,
                                          4.9629154 0.60784167 50.29628,
                                          4.9840379 0.39920977 50.125336,
                                          4.9924016 0.27555096 50.059273,
                                          4.9979773 0.14220047 50.015709,
                                          5 2.3359832e-016 32,
                                          5 7.2615533e-015 41,
                                          5 0.15908203 32.019669,
                                          5 0.31677341 32.078503,
                                          5 0.47169569 32.175987,
                                          5 0.62249458 32.311272,
                                          5 0.81487381 32.548359,
                                          5 1.0788305 33.017654,
                                          5 1.3303801 33.689861,
                                          5 1.5729135 34.773067,
                                          5 1.7025195 36.36076,
                                          5 1.6237906 37.8591,
                                          5 1.3684312 39.179581,
                                          5 0.99573642 40.151012,
                                          5 0.66644275 40.641266,
                                          5 0.48317388 40.815159,
                                          5 0.29663152 40.931236,
                                          5 0.14888561 40.982777,
                                          4.9975543 0.15637179 40.980999,
                                          4.9909163 0.30125612 40.929062,
                                          4.9814553 0.43023333 40.854088,
                                          4.9663463 0.57914048 40.731907,
                                          4.9412794 0.76404035 40.521896,
                                          4.9026103 0.98204482 40.176804,
                                          4.8477497 1.2244678 39.628174,
                                          4.7691536 1.501724 38.623672,
                                          4.7151442 1.6635555 37.466846,
                                          4.7069106 1.6867104 35.872818,
                                          4.7661419 1.5112548 34.424053,
                                          4.8543148 1.198177 33.301559,
                                          4.9232302 0.87281525 32.635681,
                                          4.9629154 0.60784167 32.29628,
                                          4.9840379 0.39920977 32.125336,
                                          4.9924016 0.27555096 32.059273,
                                          4.9979773 0.14220047 32.015709,
                                          5 0 0,
                                          4.8831029 1.0748522 0,
                                          4.5378771 2.0994456 0,
                                          3.9804654 3.025871 0,
                                          3.2369313 3.8108103 0,
                                          2.3420422 4.4175601 0,
                                          1.3376417 4.81775 0,
                                          0.27069455 4.9926672 0,
                                          -0.80891001 4.9341326 0,
                                          -1.8506907 4.6448836 0,
                                          -2.8059354 4.1384449 0,
                                          -3.6299775 3.4384973 0,
                                          -4.284286 2.5777693 0,
                                          -4.738266 1.5965077 0,
                                          -4.9706898 0.54059511 0,
                                          -4.9706898 -0.54059511 0,
                                          -4.738266 -1.5965077 0,
                                          -4.284286 -2.5777693 0,
                                          -3.6299775 -3.4384973 0,
                                          -2.8059354 -4.1384449 0,
                                          -1.8506907 -4.6448836 0,
                                          -0.80891001 -4.9341326 0,
                                          0.27069455 -4.9926672 0,
                                          1.3376417 -4.81775 0,
                                          2.3420422 -4.4175601 0,
                                          3.2369313 -3.8108103 0,
                                          3.9804654 -3.025871 0,
                                          4.5378771 -2.0994456 0,
                                          4.8831029 -1.0748522 0,
                                          5 7.2615533e-015 41,
                                          5 2.3359832e-016 32,
                                          4.9975543 -0.15637179 40.980999,
                                          4.9909163 -0.30125612 40.929062,
                                          4.9814553 -0.43023333 40.854088,
                                          4.9663463 -0.57914048 40.731907,
                                          4.9412794 -0.76404035 40.521896,
                                          4.9026103 -0.98204482 40.176804,
                                          4.8477497 -1.2244678 39.628174,
                                          4.7691536 -1.501724 38.623672,
                                          4.7151442 -1.6635555 37.466846,
                                          4.7069106 -1.6867104 35.872818,
                                          4.7661419 -1.5112548 34.424053,
                                          4.8543148 -1.198177 33.301559,
                                          4.9232302 -0.87281525 32.635681,
                                          4.9629154 -0.60784167 32.29628,
                                          4.9841514 -0.39778954 32.124432,
                                          4.992487 -0.27399811 32.058601,
                                          4.9980516 -0.13957754 32.015133,
                                          5 -0.15908203 40.980331,
                                          5 -0.31677341 40.921497,
                                          5 -0.47169569 40.824013,
                                          5 -0.62249458 40.688728,
                                          5 -0.81487381 40.451641,
                                          5 -1.0788305 39.982346,
                                          5 -1.3303801 39.310139,
                                          5 -1.5729135 38.226933,
                                          5 -1.7025195 36.63924,
                                          5 -1.6237906 35.1409,
                                          5 -1.3684312 33.820419,
                                          5 -0.99573642 32.848988,
                                          5 -0.66644275 32.358734,
                                          5 -0.48317388 32.184841,
                                          5 -0.29663152 32.068764,
                                          5 -0.14888561 32.017223,
                                          5 -2.9413087e-016 50,
                                          5 1.2257557e-014 59,
                                          5 -0.15908203 58.980331,
                                          5 -0.31677341 58.921497,
                                          5 -0.47169569 58.824013,
                                          5 -0.62249458 58.688728,
                                          5 -0.81487381 58.451641,
                                          5 -1.0788305 57.982346,
                                          5 -1.3303801 57.310139,
                                          5 -1.5729135 56.226933,
                                          5 -1.7025195 54.63924,
                                          5 -1.6237906 53.1409,
                                          5 -1.3684312 51.820419,
                                          5 -0.99573642 50.848988,
                                          5 -0.66644275 50.358734,
                                          5 -0.48317388 50.184841,
                                          5 -0.29663152 50.068764,
                                          5 -0.14888561 50.017223,
                                          5 -2.9413087e-016 50,
                                          5 1.2257557e-014 59,
                                          5 0.15908203 50.019669,
                                          5 0.31677341 50.078503,
                                          5 0.47169569 50.175987,
                                          5 0.62249458 50.311272,
                                          5 0.81487381 50.548359,
                                          5 1.0788305 51.017654,
                                          5 1.3303801 51.689861,
                                          5 1.5729135 52.773067,
                                          5 1.7025195 54.36076,
                                          5 1.6237906 55.8591,
                                          5 1.3684312 57.179581,
                                          5 0.99573642 58.151012,
                                          5 0.66644275 58.641266,
                                          5 0.48317388 58.815159,
                                          5 0.29663152 58.931236,
                                          5 0.14888561 58.982777,
                                          5 2.3359832e-016 32,
                                          5 7.2615533e-015 41,
                                          5 0.15908203 32.019669,
                                          5 0.31677341 32.078503,
                                          5 0.47169569 32.175987,
                                          5 0.62249458 32.311272,
                                          5 0.81487381 32.548359,
                                          5 1.0788305 33.017654,
                                          5 1.3303801 33.689861,
                                          5 1.5729135 34.773067,
                                          5 1.7025195 36.36076,
                                          5 1.6237906 37.8591,
                                          5 1.3684312 39.179581,
                                          5 0.99573642 40.151012,
                                          5 0.66644275 40.641266,
                                          5 0.48317388 40.815159,
                                          5 0.29663152 40.931236,
                                          5 0.14888561 40.982777,
                                          5 2.3359832e-016 32,
                                          5 7.2615533e-015 41,
                                          5 -0.15908203 40.980331,
                                          5 -0.31677341 40.921497,
                                          5 -0.47169569 40.824013,
                                          5 -0.62249458 40.688728,
                                          5 -0.81487381 40.451641,
                                          5 -1.0788305 39.982346,
                                          5 -1.3303801 39.310139,
                                          5 -1.5729135 38.226933,
                                          5 -1.7025195 36.63924,
                                          5 -1.6237906 35.1409,
                                          5 -1.3684312 33.820419,
                                          5 -0.99573642 32.848988,
                                          5 -0.66644275 32.358734,
                                          5 -0.48317388 32.184841,
                                          5 -0.29663152 32.068764,
                                          5 -0.14888561 32.017223,
                                          5 7.2615533e-015 41,
                                          5 -2.9413087e-016 50,
                                          5 1.2257557e-014 59,
                                          5 0 70,
                                          5 2.3359832e-016 32,
                                          5 0 0 ]

                                    }
                                    coordIndex [ 69, 51, -1, 2, 3, 4, 5, 6,
                                        7, 8, 9, 10, 11, 12, 13, 14,
                                        15, 16, 17, 18, 19, 1, -1, 50,
                                        21, -1, 21, 22, 23, 24, 25, 26,
                                        27, 28, 29, 30, 31, 32, 33, 34,
                                        35, 36, 37, 38, 39, 40, 41, 42,
                                        43, 44, 45, 46, 47, 48, 49, 20,
                                        -1, 50, 52, 53, 54, 55, 56, 57,
                                        58, 59, 60, 61, 62, 63, 64, 65,
                                        66, 67, 68, 51, -1, 69, 71, 72,
                                        73, 74, 75, 76, 77, 78, 79, 80,
                                        81, 82, 83, 84, 85, 86, 87, 70,
                                        -1, 89, 118, -1, 88, 90, 91, 92,
                                        93, 94, 95, 96, 97, 98, 99, 100,
                                        101, 102, 103, 104, 105, 106, 107, 108,
                                        109, 110, 111, 112, 113, 114, 115, 116,
                                        117, 89, -1, 0, 119, 120, 121, 122,
                                        123, 124, 125, 126, 127, 128, 129, 130,
                                        131, 132, 133, 134, 135, 118, -1, 136,
                                        155, 156, 157, 158, 159, 160, 161, 162,
                                        163, 164, 165, 166, 167, 168, 169, 170,
                                        137, -1, 200, 202, 203, 204, 205, 206,
                                        207, 208, 209, 210, 211, 212, 213, 214,
                                        215, 216, 217, 201, -1, 235, 237, 238,
                                        239, 240, 241, 242, 243, 244, 245, 246,
                                        247, 248, 249, 250, 251, 252, 236, -1,
                                        299, 318, 319, 320, 321, 322, 323, 324,
                                        325, 326, 327, 328, 329, 330, 331, 332,
                                        333, 300, -1, 334, 335, -1, 370, 371,
                                        -1 ]

                                  }

                                }

                            },
                              
                            DEF o21 Group {
                              children 
                                DEF o22 Shape {
                                  appearance 
                                  Appearance {
                                    material 
                                    Material {
                                      transparency 0.75

                                    }

                                  }
                                  geometry 
                                  IndexedFaceSet {
                                    coord 
                                    USE o20
                                    coordIndex [ 50, 52, 21, -1, 52, 53, 21, -1,
                                        51, 69, 68, -1, 53, 54, 21, -1,
                                        69, 71, 68, -1, 68, 71, 67, -1,
                                        54, 55, 21, -1, 71, 72, 67, -1,
                                        67, 72, 66, -1, 66, 73, 65, -1,
                                        72, 73, 66, -1, 55, 22, 21, -1,
                                        56, 22, 55, -1, 73, 74, 65, -1,
                                        56, 57, 22, -1, 65, 75, 64, -1,
                                        74, 75, 65, -1, 57, 58, 22, -1,
                                        85, 88, 84, -1, 86, 88, 85, -1,
                                        87, 88, 86, -1, 70, 88, 87, -1,
                                        64, 76, 63, -1, 75, 76, 64, -1,
                                        58, 59, 22, -1, 76, 77, 63, -1,
                                        77, 62, 63, -1, 59, 23, 22, -1,
                                        60, 23, 59, -1, 61, 23, 60, -1,
                                        77, 78, 62, -1, 78, 79, 62, -1,
                                        62, 79, 61, -1, 79, 80, 61, -1,
                                        61, 80, 23, -1, 82, 90, 81, -1,
                                        83, 90, 82, -1, 84, 90, 83, -1,
                                        88, 90, 84, -1, 90, 91, 81, -1,
                                        80, 91, 23, -1, 81, 91, 80, -1,
                                        23, 92, 24, -1, 91, 92, 23, -1,
                                        24, 93, 25, -1, 92, 93, 24, -1,
                                        25, 94, 26, -1, 93, 94, 25, -1,
                                        26, 95, 27, -1, 94, 95, 26, -1,
                                        27, 96, 28, -1, 95, 96, 27, -1,
                                        28, 97, 29, -1, 96, 97, 28, -1,
                                        29, 98, 30, -1, 97, 98, 29, -1,
                                        30, 99, 31, -1, 98, 99, 30, -1,
                                        31, 100, 32, -1, 99, 100, 31, -1,
                                        32, 101, 33, -1, 100, 101, 32, -1,
                                        33, 102, 34, -1, 101, 102, 33, -1,
                                        34, 103, 35, -1, 102, 103, 34, -1,
                                        35, 104, 36, -1, 103, 104, 35, -1,
                                        36, 105, 37, -1, 104, 105, 36, -1,
                                        37, 106, 38, -1, 105, 106, 37, -1,
                                        38, 107, 39, -1, 106, 107, 38, -1,
                                        39, 108, 40, -1, 107, 108, 39, -1,
                                        40, 109, 41, -1, 108, 109, 40, -1,
                                        41, 110, 42, -1, 109, 110, 41, -1,
                                        110, 111, 42, -1, 42, 111, 43, -1,
                                        111, 112, 43, -1, 43, 112, 44, -1,
                                        112, 113, 44, -1, 44, 113, 45, -1,
                                        113, 114, 45, -1, 45, 114, 46, -1,
                                        114, 115, 46, -1, 46, 115, 47, -1,
                                        48, 12, 11, -1, 11, 10, 48, -1,
                                        10, 49, 48, -1, 12, 127, 13, -1,
                                        48, 128, 12, -1, 12, 128, 127, -1,
                                        10, 9, 49, -1, 127, 126, 13, -1,
                                        9, 8, 49, -1, 115, 116, 47, -1,
                                        128, 116, 129, -1, 48, 116, 128, -1,
                                        47, 116, 48, -1, 13, 125, 14, -1,
                                        126, 125, 13, -1, 8, 7, 49, -1,
                                        7, 6, 49, -1, 14, 124, 15, -1,
                                        125, 124, 14, -1, 15, 123, 16, -1,
                                        124, 123, 15, -1, 4, 20, 5, -1,
                                        5, 20, 6, -1, 6, 20, 49, -1,
                                        123, 122, 16, -1, 4, 3, 20, -1,
                                        16, 121, 17, -1, 122, 121, 16, -1,
                                        3, 2, 20, -1, 17, 120, 18, -1,
                                        121, 120, 17, -1, 129, 117, 130, -1,
                                        130, 117, 131, -1, 131, 117, 132, -1,
                                        116, 117, 129, -1, 18, 119, 19, -1,
                                        120, 119, 18, -1, 19, 0, 1, -1,
                                        119, 0, 19, -1, 132, 89, 133, -1,
                                        133, 89, 134, -1, 134, 89, 135, -1,
                                        135, 89, 118, -1, 117, 89, 132, -1,
                                        138, 155, 136, -1, 138, 139, 155, -1,
                                        139, 156, 155, -1, 139, 140, 156, -1,
                                        140, 157, 156, -1, 140, 141, 157, -1,
                                        141, 158, 157, -1, 141, 142, 158, -1,
                                        142, 159, 158, -1, 142, 143, 159, -1,
                                        143, 160, 159, -1, 143, 144, 160, -1,
                                        144, 161, 160, -1, 144, 145, 161, -1,
                                        145, 162, 161, -1, 145, 146, 162, -1,
                                        146, 163, 162, -1, 146, 147, 163, -1,
                                        147, 164, 163, -1, 147, 148, 164, -1,
                                        148, 165, 164, -1, 148, 149, 165, -1,
                                        149, 166, 165, -1, 149, 150, 166, -1,
                                        150, 167, 166, -1, 150, 151, 167, -1,
                                        151, 168, 167, -1, 151, 152, 168, -1,
                                        152, 169, 168, -1, 152, 153, 169, -1,
                                        153, 170, 169, -1, 153, 154, 170, -1,
                                        154, 137, 170, -1, 188, 189, 190, -1,
                                        191, 188, 190, -1, 186, 187, 188, -1,
                                        194, 192, 193, -1, 184, 185, 186, -1,
                                        196, 191, 192, -1, 196, 194, 195, -1,
                                        196, 192, 194, -1, 181, 182, 183, -1,
                                        181, 183, 184, -1, 198, 196, 197, -1,
                                        180, 181, 184, -1, 178, 179, 180, -1,
                                        172, 199, 171, -1, 173, 198, 199, -1,
                                        173, 186, 188, -1, 173, 188, 191, -1,
                                        173, 184, 186, -1, 173, 180, 184, -1,
                                        173, 191, 196, -1, 173, 199, 172, -1,
                                        173, 196, 198, -1, 173, 178, 180, -1,
                                        176, 177, 178, -1, 175, 173, 174, -1,
                                        175, 176, 178, -1, 175, 178, 173, -1,
                                        234, 202, 200, -1, 234, 233, 202, -1,
                                        233, 203, 202, -1, 233, 232, 203, -1,
                                        232, 204, 203, -1, 204, 231, 205, -1,
                                        232, 231, 204, -1, 231, 206, 205, -1,
                                        231, 230, 206, -1, 230, 207, 206, -1,
                                        230, 229, 207, -1, 229, 208, 207, -1,
                                        229, 228, 208, -1, 228, 209, 208, -1,
                                        228, 227, 209, -1, 227, 210, 209, -1,
                                        227, 226, 210, -1, 226, 211, 210, -1,
                                        226, 225, 211, -1, 225, 212, 211, -1,
                                        225, 224, 212, -1, 224, 213, 212, -1,
                                        224, 223, 213, -1, 223, 222, 213, -1,
                                        222, 214, 213, -1, 222, 221, 214, -1,
                                        221, 215, 214, -1, 221, 220, 215, -1,
                                        220, 216, 215, -1, 220, 219, 216, -1,
                                        219, 218, 216, -1, 218, 217, 216, -1,
                                        218, 201, 217, -1, 269, 237, 235, -1,
                                        269, 268, 237, -1, 268, 238, 237, -1,
                                        268, 267, 238, -1, 267, 239, 238, -1,
                                        239, 266, 240, -1, 267, 266, 239, -1,
                                        266, 241, 240, -1, 266, 265, 241, -1,
                                        265, 242, 241, -1, 265, 264, 242, -1,
                                        264, 243, 242, -1, 264, 263, 243, -1,
                                        263, 244, 243, -1, 263, 262, 244, -1,
                                        262, 245, 244, -1, 262, 261, 245, -1,
                                        261, 246, 245, -1, 261, 260, 246, -1,
                                        260, 247, 246, -1, 260, 259, 247, -1,
                                        259, 248, 247, -1, 259, 258, 248, -1,
                                        258, 257, 248, -1, 257, 249, 248, -1,
                                        257, 256, 249, -1, 256, 250, 249, -1,
                                        256, 255, 250, -1, 255, 251, 250, -1,
                                        255, 254, 251, -1, 254, 253, 251, -1,
                                        253, 252, 251, -1, 253, 236, 252, -1,
                                        288, 287, 289, -1, 287, 290, 289, -1,
                                        286, 285, 287, -1, 291, 293, 292, -1,
                                        284, 283, 285, -1, 290, 295, 291, -1,
                                        293, 295, 294, -1, 291, 295, 293, -1,
                                        281, 280, 282, -1, 282, 280, 283, -1,
                                        295, 297, 296, -1, 280, 279, 283, -1,
                                        278, 277, 279, -1, 298, 271, 270, -1,
                                        297, 272, 298, -1, 285, 272, 287, -1,
                                        287, 272, 290, -1, 283, 272, 285, -1,
                                        279, 272, 283, -1, 290, 272, 295, -1,
                                        298, 272, 271, -1, 295, 272, 297, -1,
                                        277, 272, 279, -1, 276, 275, 277, -1,
                                        272, 274, 273, -1, 275, 274, 277, -1,
                                        277, 274, 272, -1, 301, 318, 299, -1,
                                        301, 302, 318, -1, 302, 319, 318, -1,
                                        302, 303, 319, -1, 303, 320, 319, -1,
                                        303, 304, 320, -1, 304, 321, 320, -1,
                                        304, 305, 321, -1, 305, 322, 321, -1,
                                        305, 306, 322, -1, 306, 323, 322, -1,
                                        306, 307, 323, -1, 307, 324, 323, -1,
                                        307, 308, 324, -1, 308, 325, 324, -1,
                                        308, 309, 325, -1, 309, 326, 325, -1,
                                        309, 310, 326, -1, 310, 327, 326, -1,
                                        310, 311, 327, -1, 311, 328, 327, -1,
                                        311, 312, 328, -1, 312, 329, 328, -1,
                                        312, 313, 329, -1, 313, 330, 329, -1,
                                        313, 314, 330, -1, 314, 331, 330, -1,
                                        314, 315, 331, -1, 315, 332, 331, -1,
                                        315, 316, 332, -1, 316, 333, 332, -1,
                                        316, 317, 333, -1, 317, 300, 333, -1,
                                        334, 347, 348, -1, 334, 348, 349, -1,
                                        334, 349, 350, -1, 334, 350, 351, -1,
                                        346, 347, 334, -1, 345, 346, 334, -1,
                                        344, 345, 334, -1, 335, 336, 337, -1,
                                        335, 337, 338, -1, 335, 338, 339, -1,
                                        335, 339, 340, -1, 335, 340, 341, -1,
                                        335, 341, 342, -1, 335, 342, 343, -1,
                                        335, 343, 344, -1, 335, 344, 334, -1,
                                        355, 352, 354, -1, 356, 352, 355, -1,
                                        357, 352, 356, -1, 358, 352, 357, -1,
                                        359, 352, 358, -1, 360, 352, 359, -1,
                                        361, 352, 360, -1, 362, 352, 361, -1,
                                        353, 362, 363, -1, 353, 363, 364, -1,
                                        353, 352, 362, -1, 365, 353, 364, -1,
                                        368, 369, 353, -1, 367, 368, 353, -1,
                                        366, 353, 365, -1, 366, 367, 353, -1,
                                        373, 370, 372, -1, 374, 370, 373, -1,
                                        375, 370, 374, -1, 376, 370, 375, -1,
                                        377, 370, 376, -1, 378, 370, 377, -1,
                                        379, 370, 378, -1, 380, 370, 379, -1,
                                        371, 380, 381, -1, 371, 381, 382, -1,
                                        371, 370, 380, -1, 383, 371, 382, -1,
                                        386, 387, 371, -1, 385, 386, 371, -1,
                                        384, 371, 383, -1, 384, 385, 371, -1,
                                        388, 401, 402, -1, 388, 402, 403, -1,
                                        388, 403, 404, -1, 388, 404, 405, -1,
                                        400, 401, 388, -1, 399, 400, 388, -1,
                                        398, 399, 388, -1, 389, 390, 391, -1,
                                        389, 391, 392, -1, 389, 392, 393, -1,
                                        389, 393, 394, -1, 389, 394, 395, -1,
                                        389, 395, 396, -1, 389, 396, 397, -1,
                                        389, 397, 398, -1, 389, 398, 388, -1 ]
                                    ccw TRUE
                                    solid FALSE
                                    convex TRUE
                                    creaseAngle 0

                                  }

                                }

                            },
                              
                            DEF o23 Group {
                              children 
                                DEF o24 Shape {
                                  appearance 
                                  Appearance {
                                    material 
                                    Material {
                                      emissiveColor 0.098039217 0.098039217 0.098039217

                                    }

                                  }
                                  geometry 
                                  PointSet {
                                    coord 
                                    USE o20

                                  }

                                }

                            } ]

                        }

                    }

                } ]

            }

        }

    }

}
