(module Tube:CT-IN-18 (layer F.Cu) (tedit 5D4629CD)
  (fp_text reference REF** (at 0 -8.89) (layer F.SilkS)
    (effects (font (size 1 1) (thickness 0.15)))
  )
  (fp_text value CT-IN-18 (at 0 -11.43) (layer F.Fab)
    (effects (font (size 1 1) (thickness 0.15)))
  )
  (fp_circle (center 0 0) (end 7.65 0) (layer F.SilkS) (width 0.12))
  (pad "" np_thru_hole circle (at 0 0) (size 12 12) (drill 12) (layers *.Cu *.Mask))
  (pad 4 thru_hole circle (at 8.89 -5.08 90) (size 1.524 1.524) (drill 0.762) (layers *.Cu *.Mask))
  (pad 3 thru_hole circle (at 5.08 -8.89 90) (size 1.524 1.524) (drill 0.762) (layers *.Cu *.Mask))
  (pad 2 thru_hole circle (at -5.08 -8.89) (size 1.524 1.524) (drill 0.762) (layers *.Cu *.Mask))
  (pad 1 thru_hole circle (at -8.89 -5.08) (size 1.524 1.524) (drill 0.762) (layers *.Cu *.Mask))
  (model ${KIPRJMOD}/3d_models/ct-in-18.wrl
    (offset (xyz 0 0 -5))
    (scale (xyz 0.45 0.45 0.45))
    (rotate (xyz 0 0 90))
  )
)
